Keshav’s R Journal
…
cybersecdata1_sampled <- sample(1:nrow(cybersecdata1), 500)

#after the code is sampled

cybersecdata1_final <- cybersecdata1[cybersecdata1_sampled,]

Warning: One or more parsing issues, call `problems()` on your data frame for details,
e.g.:
  dat <- vroom(...)
  problems(dat)

cybersecdata1_final

# A tibble: 500 × 4
   `Primary Category`           `Secondary Category`               Title   URL  
   <chr>                        <chr>                              <chr>   <chr>
 1 Government, Law & Politics   European Parliament Elections 2009 Animal… http…
 2 Government, Law & Politics   Credit Crunch                      Debt o… http…
 3 Medicine & Health            Conditions and Diseases            Everym… http…
 4 Arts & Humanities            Geography                          Go-Geo… http…
 5 Arts & Humanities            Local History                      GELLIG… http…
 6 Government, Law & Politics   Credit Crunch                      Davent… http…
 7 Digital Society              Blogs                              Histor… http…
 8 Arts & Humanities            Live Art                           London… http…
 9 Business, Economy & Industry Credit Crunch                      London… http…
10 Society & Culture            Sports and Recreation              Wenloc… http…
# ℹ 490 more rows
…
